{
	"variables": [],
	"info": {
		"name": "Credit_Attributes Postpaid QLab01",
		"_postman_id": "9f27b38d-b267-1c01-04d5-c1e9350d38a2",
		"description": "",
		"schema": "https://schema.getpostman.com/json/collection/v2.0.0/collection.json"
	},
	"item": [
		{
			"name": "CreditGroup_Default",
			"event": [
				{
					"listen": "test",
					"script": {
						"type": "text/javascript",
						"exec": [
							"//tests[\"Response time is less than 200ms\"] = responseTime < 200;",
							"",
							"//Check Content-Type exists and it is application/json",
							"var contentTypeHeaderExists = responseHeaders.hasOwnProperty(\"Content-Type\");",
							" ",
							"tests[\"Content-Type is present\"] = contentTypeHeaderExists;",
							" ",
							"if (contentTypeHeaderExists) {",
							"    tests[\"Content-Type is application/json\"] = ",
							"      responseHeaders[\"Content-Type\"].has(\"application/json\");",
							"}",
							"",
							"//Test Status Code",
							"if(responseCode.code === 400){",
							"tests[\"400-Bad Request Error : \" + responseBody] = responseCode.code !== 400;",
							"}",
							"else if(responseCode.code === 500){",
							"tests[\" 500-Internal Server Error : \" + responseBody ] = responseCode.code !== 500;",
							"}",
							"else if(responseCode.code === 503){",
							"tests[\" 503-Service unavailable error : \" + responseBody ] = responseCode.code !== 503;",
							"}",
							"else if(responseCode.code === 404){",
							"tests[\" 404-Not Found Error : \" + responseBody ] = responseCode.code !== 404;",
							"}",
							"else if(responseCode.code === 502){",
							"tests[\" 502-Bad Gateway Error : \" + responseBody ] = responseCode.code !== 502;",
							"}",
							"else{",
							" tests[\"Successful GET request.Status Code is : \" + responseCode.code] = responseCode.code === 200;",
							" tests[\"Status code name is :  \" + responseCode.name ] = responseCode.name.has(\"Accepted\") || responseCode.name.has(\"OK\");",
							"}",
							"",
							"//Response does not contain any error",
							"tests[\"Response Body does not contain errors\"] = !((responseBody.has(\"errors\")) || (responseBody.has(\"error\")) || (responseBody.has(\"Bad Request\"))) ;",
							""
						]
					}
				}
			],
			"request": {
				"url": {
					"raw": "https://qlab01.core.op.api.t-mobile.com/credit/v1/riskassessmentreferencedata?creditgroup=DEFAULT",
					"protocol": "https",
					"host": [
						"qlab01",
						"core",
						"op",
						"api",
						"t-mobile",
						"com"
					],
					"path": [
						"credit",
						"v1",
						"riskassessmentreferencedata"
					],
					"query": [
						{
							"key": "creditgroup",
							"value": "DEFAULT",
							"equals": true,
							"description": ""
						}
					],
					"variable": []
				},
				"method": "GET",
				"header": [
					{
						"key": "Content-Type",
						"value": "application/json",
						"description": ""
					}
				],
				"body": {},
				"description": ""
			},
			"response": []
		},
		{
			"name": "CreditGroup_ALL",
			"event": [
				{
					"listen": "test",
					"script": {
						"type": "text/javascript",
						"exec": [
							"//tests[\"Response time is less than 200ms\"] = responseTime < 200;",
							"",
							"//Check Content-Type exists and it is application/json",
							"var contentTypeHeaderExists = responseHeaders.hasOwnProperty(\"Content-Type\");",
							" ",
							"tests[\"Content-Type is present\"] = contentTypeHeaderExists;",
							" ",
							"if (contentTypeHeaderExists) {",
							"    tests[\"Content-Type is application/json\"] = ",
							"      responseHeaders[\"Content-Type\"].has(\"application/json\");",
							"}",
							"",
							"//Test Status Code",
							"if(responseCode.code === 400){",
							"tests[\"400-Bad Request Error : \" + responseBody] = responseCode.code !== 400;",
							"}",
							"else if(responseCode.code === 500){",
							"tests[\" 500-Internal Server Error : \" + responseBody ] = responseCode.code !== 500;",
							"}",
							"else if(responseCode.code === 503){",
							"tests[\" 503-Service unavailable error : \" + responseBody ] = responseCode.code !== 503;",
							"}",
							"else if(responseCode.code === 404){",
							"tests[\" 404-Not Found Error : \" + responseBody ] = responseCode.code !== 404;",
							"}",
							"else if(responseCode.code === 502){",
							"tests[\" 502-Bad Gateway Error : \" + responseBody ] = responseCode.code !== 502;",
							"}",
							"else{",
							" tests[\"Successful GET request.Status Code is : \" + responseCode.code] = responseCode.code === 200;",
							" tests[\"Status code name is :  \" + responseCode.name ] = responseCode.name.has(\"Accepted\") || responseCode.name.has(\"OK\");",
							"}",
							"",
							"//Response does not contain any error",
							"tests[\"Response Body does not contain errors\"] = !((responseBody.has(\"errors\")) || (responseBody.has(\"error\")) || (responseBody.has(\"Bad Request\"))) ;",
							""
						]
					}
				}
			],
			"request": {
				"url": {
					"raw": "https://qlab01.core.op.api.t-mobile.com/credit/v1/riskassessmentreferencedata?creditgroup=ALL",
					"protocol": "https",
					"host": [
						"qlab01",
						"core",
						"op",
						"api",
						"t-mobile",
						"com"
					],
					"path": [
						"credit",
						"v1",
						"riskassessmentreferencedata"
					],
					"query": [
						{
							"key": "creditgroup",
							"value": "ALL",
							"equals": true,
							"description": ""
						}
					],
					"variable": []
				},
				"method": "GET",
				"header": [
					{
						"key": "Content-Type",
						"value": "application/json",
						"description": ""
					}
				],
				"body": {},
				"description": ""
			},
			"response": []
		},
		{
			"name": "CreditClass_A",
			"event": [
				{
					"listen": "test",
					"script": {
						"type": "text/javascript",
						"exec": [
							"//tests[\"Response time is less than 200ms\"] = responseTime < 200;",
							"",
							"//Check Content-Type exists and it is application/json",
							"var contentTypeHeaderExists = responseHeaders.hasOwnProperty(\"Content-Type\");",
							" ",
							"tests[\"Content-Type is present\"] = contentTypeHeaderExists;",
							" ",
							"if (contentTypeHeaderExists) {",
							"    tests[\"Content-Type is application/json\"] = ",
							"      responseHeaders[\"Content-Type\"].has(\"application/json\");",
							"}",
							"",
							"//Test Status Code",
							"if(responseCode.code === 400){",
							"tests[\"400-Bad Request Error : \" + responseBody] = responseCode.code !== 400;",
							"}",
							"else if(responseCode.code === 500){",
							"tests[\" 500-Internal Server Error : \" + responseBody ] = responseCode.code !== 500;",
							"}",
							"else if(responseCode.code === 503){",
							"tests[\" 503-Service unavailable error : \" + responseBody ] = responseCode.code !== 503;",
							"}",
							"else if(responseCode.code === 404){",
							"tests[\" 404-Not Found Error : \" + responseBody ] = responseCode.code !== 404;",
							"}",
							"else if(responseCode.code === 502){",
							"tests[\" 502-Bad Gateway Error : \" + responseBody ] = responseCode.code !== 502;",
							"}",
							"else{",
							" tests[\"Successful GET request.Status Code is : \" + responseCode.code] = responseCode.code === 200;",
							" tests[\"Status code name is :  \" + responseCode.name ] = responseCode.name.has(\"Accepted\") || responseCode.name.has(\"OK\");",
							"}",
							"",
							"//Response does not contain any error",
							"tests[\"Response Body does not contain errors\"] = !((responseBody.has(\"errors\")) || (responseBody.has(\"error\")) || (responseBody.has(\"Bad Request\"))) ;",
							""
						]
					}
				}
			],
			"request": {
				"url": {
					"raw": "https://qlab01.core.op.api.t-mobile.com/credit/v1/riskassessmentreferencedata?creditclass=A",
					"protocol": "https",
					"host": [
						"qlab01",
						"core",
						"op",
						"api",
						"t-mobile",
						"com"
					],
					"path": [
						"credit",
						"v1",
						"riskassessmentreferencedata"
					],
					"query": [
						{
							"key": "creditclass",
							"value": "A",
							"equals": true,
							"description": ""
						}
					],
					"variable": []
				},
				"method": "GET",
				"header": [
					{
						"key": "Content-Type",
						"value": "application/json",
						"description": ""
					}
				],
				"body": {},
				"description": ""
			},
			"response": []
		}
	]
}
